{

		"embryosByCategories": {
			"Hblast": [
				{
					"cluster": "1aa",
					"color": "#6FCF50",
					"values": [
						{
							"image": "http://www.brusselsivf.be/media/fotoboek/14/images/embryo-8-cellig-dag3.jpg",
							"phase_of_development": "Hblast",
							"cluster": "1aa",
							"activity_data": [0, 13.952141627669334, 14.250443503260612, 19.030465185642242],
							"expansion_data": [36.663333333333334, 36.48, 36.5, 36.556666666666665, 36.35666666666667],
							"events": {
								"0": {
									"type": "up"
								},
								"3": {
									"type": "down"
								}
							}
						},
						{
							"image": "http://www.brusselsivf.be/media/fotoboek/14/images/embryo-8-cellig-dag3.jpg",
							"phase_of_development": "Hblast",
							"cluster": "1aa",
							"activity_data": [0, 13.952141627669334, 14.250443503260612, 19.030465185642242],
							"expansion_data": [36.663333333333334, 36.48, 36.5, 36.556666666666665, 36.35666666666667],
							"events": {
								"0": {
									"type": "up"
								},
								"3": {
									"type": "down"
								}
							}
						},
						{
							"image": "http://www.brusselsivf.be/media/fotoboek/14/images/embryo-8-cellig-dag3.jpg",
							"phase_of_development": "Hblast",
							"cluster": "1aa",
							"activity_data": [0, 13.952141627669334, 14.250443503260612, 19.030465185642242],
							"expansion_data": [36.663333333333334, 36.48, 36.5, 36.556666666666665, 36.35666666666667],
							"events": {
								"0": {
									"type": "up"
								},
								"3": {
									"type": "down"
								}
							}
						},
						{
							"image": "http://www.brusselsivf.be/media/fotoboek/14/images/embryo-8-cellig-dag3.jpg",
							"phase_of_development": "Hblast",
							"cluster": "1aa",
							"activity_data": [0, 13.952141627669334, 14.250443503260612, 19.030465185642242],
							"expansion_data": [36.663333333333334, 36.48, 36.5, 36.556666666666665, 36.35666666666667],
							"events": {
								"0": {
									"type": "up"
								},
								"3": {
									"type": "down"
								}
							}
						},
						{
							"image": "http://www.brusselsivf.be/media/fotoboek/14/images/embryo-8-cellig-dag3.jpg",
							"phase_of_development": "Hblast",
							"cluster": "1aa",
							"activity_data": [0, 13.952141627669334, 14.250443503260612, 19.030465185642242],
							"expansion_data": [36.663333333333334, 36.48, 36.5, 36.556666666666665, 36.35666666666667],
							"events": {
								"0": {
									"type": "up"
								},
								"3": {
									"type": "down"
								}
							}
						},
						{
							"image": "http://www.brusselsivf.be/media/fotoboek/14/images/embryo-8-cellig-dag3.jpg",
							"phase_of_development": "Hblast",
							"cluster": "1aa",
							"activity_data": [0, 13.952141627669334, 14.250443503260612, 19.030465185642242],
							"expansion_data": [36.663333333333334, 36.48, 36.5, 36.556666666666665, 36.35666666666667],
							"events": {
								"0": {
									"type": "up"
								},
								"3": {
									"type": "down"
								}
							}
						}
					]
				},
				{
					"cluster": "1ab",
					"color": "#6FCF50",
					"values": [
						{
							"image": "http://www.brusselsivf.be/media/fotoboek/14/images/embryo-8-cellig-dag3.jpg",
							"phase_of_development": "Hblast",
							"cluster": "1ab",
							"activity_data": [0, 13.952141627669334, 14.250443503260612, 19.030465185642242],
							"expansion_data": [36.663333333333334, 36.48, 36.5, 36.556666666666665, 36.35666666666667],
							"events": {
								"0": {
									"type": "up"
								},
								"3": {
									"type": "down"
								}
							}
						},
						{
							"image": "http://www.brusselsivf.be/media/fotoboek/14/images/embryo-8-cellig-dag3.jpg",
							"phase_of_development": "Hblast",
							"cluster": "1ab",
							"activity_data": [0, 13.952141627669334, 14.250443503260612, 19.030465185642242],
							"expansion_data": [36.663333333333334, 36.48, 36.5, 36.556666666666665, 36.35666666666667],
							"events": {
								"0": {
									"type": "up"
								},
								"3": {
									"type": "down"
								}
							}
						},
						{
							"image": "http://www.brusselsivf.be/media/fotoboek/14/images/embryo-8-cellig-dag3.jpg",
							"phase_of_development": "Hblast",
							"cluster": "1ab",
							"activity_data": [0, 13.952141627669334, 14.250443503260612, 19.030465185642242],
							"expansion_data": [36.663333333333334, 36.48, 36.5, 36.556666666666665, 36.35666666666667],
							"events": {
								"0": {
									"type": "up"
								},
								"3": {
									"type": "down"
								}
							}
						},
						{
							"image": "http://www.brusselsivf.be/media/fotoboek/14/images/embryo-8-cellig-dag3.jpg",
							"phase_of_development": "Hblast",
							"cluster": "1ab",
							"activity_data": [0, 13.952141627669334, 14.250443503260612, 19.030465185642242],
							"expansion_data": [36.663333333333334, 36.48, 36.5, 36.556666666666665, 36.35666666666667],
							"events": {
								"0": {
									"type": "up"
								},
								"3": {
									"type": "down"
								}
							}
						},
						{
							"image": "http://www.brusselsivf.be/media/fotoboek/14/images/embryo-8-cellig-dag3.jpg",
							"phase_of_development": "Hblast",
							"cluster": "1ab",
							"activity_data": [0, 13.952141627669334, 14.250443503260612, 19.030465185642242],
							"expansion_data": [36.663333333333334, 36.48, 36.5, 36.556666666666665, 36.35666666666667],
							"events": {
								"0": {
									"type": "up"
								},
								"3": {
									"type": "down"
								}
							}
						},
						{
							"image": "http://www.brusselsivf.be/media/fotoboek/14/images/embryo-8-cellig-dag3.jpg",
							"phase_of_development": "Hblast",
							"cluster": "1ab",
							"activity_data": [0, 13.952141627669334, 14.250443503260612, 19.030465185642242],
							"expansion_data": [36.663333333333334, 36.48, 36.5, 36.556666666666665, 36.35666666666667],
							"events": {
								"0": {
									"type": "up"
								},
								"3": {
									"type": "down"
								}
							}
						}
					]
				},
				{
					"cluster": "1ba",
					"color": "#6FCF50",
					"values": [
						{
							"image": "http://www.brusselsivf.be/media/fotoboek/14/images/embryo-8-cellig-dag3.jpg",
							"phase_of_development": "Hblast",
							"cluster": "1ba",
							"activity_data": [0, 13.952141627669334, 14.250443503260612, 19.030465185642242],
							"expansion_data": [36.663333333333334, 36.48, 36.5, 36.556666666666665, 36.35666666666667],
							"events": {
								"0": {
									"type": "up"
								},
								"3": {
									"type": "down"
								}
							}
						},
						{
							"image": "http://www.brusselsivf.be/media/fotoboek/14/images/embryo-8-cellig-dag3.jpg",
							"phase_of_development": "Hblast",
							"cluster": "1ba",
							"activity_data": [0, 13.952141627669334, 14.250443503260612, 19.030465185642242],
							"expansion_data": [36.663333333333334, 36.48, 36.5, 36.556666666666665, 36.35666666666667],
							"events": {
								"0": {
									"type": "up"
								},
								"3": {
									"type": "down"
								}
							}
						},
						{
							"image": "http://www.brusselsivf.be/media/fotoboek/14/images/embryo-8-cellig-dag3.jpg",
							"phase_of_development": "Hblast",
							"cluster": "1ba",
							"activity_data": [0, 13.952141627669334, 14.250443503260612, 19.030465185642242],
							"expansion_data": [36.663333333333334, 36.48, 36.5, 36.556666666666665, 36.35666666666667],
							"events": {
								"0": {
									"type": "up"
								},
								"3": {
									"type": "down"
								}
							}
						},
						{
							"image": "http://www.brusselsivf.be/media/fotoboek/14/images/embryo-8-cellig-dag3.jpg",
							"phase_of_development": "Hblast",
							"cluster": "1ba",
							"activity_data": [0, 13.952141627669334, 14.250443503260612, 19.030465185642242],
							"expansion_data": [36.663333333333334, 36.48, 36.5, 36.556666666666665, 36.35666666666667],
							"events": {
								"0": {
									"type": "up"
								},
								"3": {
									"type": "down"
								}
							}
						},
						{
							"image": "http://www.brusselsivf.be/media/fotoboek/14/images/embryo-8-cellig-dag3.jpg",
							"phase_of_development": "Hblast",
							"cluster": "1ba",
							"activity_data": [0, 13.952141627669334, 14.250443503260612, 19.030465185642242],
							"expansion_data": [36.663333333333334, 36.48, 36.5, 36.556666666666665, 36.35666666666667],
							"events": {
								"0": {
									"type": "up"
								},
								"3": {
									"type": "down"
								}
							}
						},
						{
							"image": "http://www.brusselsivf.be/media/fotoboek/14/images/embryo-8-cellig-dag3.jpg",
							"phase_of_development": "Hblast",
							"cluster": "1ba",
							"activity_data": [0, 13.952141627669334, 14.250443503260612, 19.030465185642242],
							"expansion_data": [36.663333333333334, 36.48, 36.5, 36.556666666666665, 36.35666666666667],
							"events": {
								"0": {
									"type": "up"
								},
								"3": {
									"type": "down"
								}
							}
						}
					]
				}		
			],
			"Exxblast": [
				{
					"cluster": "2aa",
					"color": "#6FCF50",
					"values": [
						{
							"image": "http://www.brusselsivf.be/media/fotoboek/14/images/embryo-8-cellig-dag3.jpg",
							"phase_of_development": "Exxblast",
							"cluster": "2aa",
							"activity_data": [0, 13.952141627669334, 14.250443503260612, 19.030465185642242],
							"expansion_data": [36.663333333333334, 36.48, 36.5, 36.556666666666665, 36.35666666666667],
							"events": {
								"0": {
									"type": "up"
								},
								"3": {
									"type": "down"
								}
							}
						},
						{
							"image": "http://www.brusselsivf.be/media/fotoboek/14/images/embryo-8-cellig-dag3.jpg",
							"phase_of_development": "Exxblast",
							"cluster": "2aa",
							"activity_data": [0, 13.952141627669334, 14.250443503260612, 19.030465185642242],
							"expansion_data": [36.663333333333334, 36.48, 36.5, 36.556666666666665, 36.35666666666667],
							"events": {
								"0": {
									"type": "up"
								},
								"3": {
									"type": "down"
								}
							}
						},
						{
							"image": "http://www.brusselsivf.be/media/fotoboek/14/images/embryo-8-cellig-dag3.jpg",
							"phase_of_development": "Exxblast",
							"cluster": "2aa",
							"activity_data": [0, 13.952141627669334, 14.250443503260612, 19.030465185642242],
							"expansion_data": [36.663333333333334, 36.48, 36.5, 36.556666666666665, 36.35666666666667],
							"events": {
								"0": {
									"type": "up"
								},
								"3": {
									"type": "down"
								}
							}
						},
						{
							"image": "http://www.brusselsivf.be/media/fotoboek/14/images/embryo-8-cellig-dag3.jpg",
							"phase_of_development": "Exxblast",
							"cluster": "2aa",
							"activity_data": [0, 13.952141627669334, 14.250443503260612, 19.030465185642242],
							"expansion_data": [36.663333333333334, 36.48, 36.5, 36.556666666666665, 36.35666666666667],
							"events": {
								"0": {
									"type": "up"
								},
								"3": {
									"type": "down"
								}
							}
						},
						{
							"image": "http://www.brusselsivf.be/media/fotoboek/14/images/embryo-8-cellig-dag3.jpg",
							"phase_of_development": "Exxblast",
							"cluster": "2aa",
							"activity_data": [0, 13.952141627669334, 14.250443503260612, 19.030465185642242],
							"expansion_data": [36.663333333333334, 36.48, 36.5, 36.556666666666665, 36.35666666666667],
							"events": {
								"0": {
									"type": "up"
								},
								"3": {
									"type": "down"
								}
							}
						},
						{
							"image": "http://www.brusselsivf.be/media/fotoboek/14/images/embryo-8-cellig-dag3.jpg",
							"phase_of_development": "Exxblast",
							"cluster": "2aa",
							"activity_data": [0, 13.952141627669334, 14.250443503260612, 19.030465185642242],
							"expansion_data": [36.663333333333334, 36.48, 36.5, 36.556666666666665, 36.35666666666667],
							"events": {
								"0": {
									"type": "up"
								},
								"3": {
									"type": "down"
								}
							}
						}
					]
				},
				{
					"cluster": "2ab",
					"color": "#6FCF50",
					"values": [
						{
							"image": "http://www.brusselsivf.be/media/fotoboek/14/images/embryo-8-cellig-dag3.jpg",
							"phase_of_development": "Exxblast",
							"cluster": "2ab",
							"activity_data": [0, 13.952141627669334, 14.250443503260612, 19.030465185642242],
							"expansion_data": [36.663333333333334, 36.48, 36.5, 36.556666666666665, 36.35666666666667],
							"events": {
								"0": {
									"type": "up"
								},
								"3": {
									"type": "down"
								}
							}
						},
						{
							"image": "http://www.brusselsivf.be/media/fotoboek/14/images/embryo-8-cellig-dag3.jpg",
							"phase_of_development": "Exxblast",
							"cluster": "2ab",
							"activity_data": [0, 13.952141627669334, 14.250443503260612, 19.030465185642242],
							"expansion_data": [36.663333333333334, 36.48, 36.5, 36.556666666666665, 36.35666666666667],
							"events": {
								"0": {
									"type": "up"
								},
								"3": {
									"type": "down"
								}
							}
						},
						{
							"image": "http://www.brusselsivf.be/media/fotoboek/14/images/embryo-8-cellig-dag3.jpg",
							"phase_of_development": "Exxblast",
							"cluster": "2ab",
							"activity_data": [0, 13.952141627669334, 14.250443503260612, 19.030465185642242],
							"expansion_data": [36.663333333333334, 36.48, 36.5, 36.556666666666665, 36.35666666666667],
							"events": {
								"0": {
									"type": "up"
								},
								"3": {
									"type": "down"
								}
							}
						},
						{
							"image": "http://www.brusselsivf.be/media/fotoboek/14/images/embryo-8-cellig-dag3.jpg",
							"phase_of_development": "Exxblast",
							"cluster": "2ab",
							"activity_data": [0, 13.952141627669334, 14.250443503260612, 19.030465185642242],
							"expansion_data": [36.663333333333334, 36.48, 36.5, 36.556666666666665, 36.35666666666667],
							"events": {
								"0": {
									"type": "up"
								},
								"3": {
									"type": "down"
								}
							}
						},
						{
							"image": "http://www.brusselsivf.be/media/fotoboek/14/images/embryo-8-cellig-dag3.jpg",
							"phase_of_development": "Exxblast",
							"cluster": "2ab",
							"activity_data": [0, 13.952141627669334, 14.250443503260612, 19.030465185642242],
							"expansion_data": [36.663333333333334, 36.48, 36.5, 36.556666666666665, 36.35666666666667],
							"events": {
								"0": {
									"type": "up"
								},
								"3": {
									"type": "down"
								}
							}
						},
						{
							"image": "http://www.brusselsivf.be/media/fotoboek/14/images/embryo-8-cellig-dag3.jpg",
							"phase_of_development": "Exxblast",
							"cluster": "2ab",
							"activity_data": [0, 13.952141627669334, 14.250443503260612, 19.030465185642242],
							"expansion_data": [36.663333333333334, 36.48, 36.5, 36.556666666666665, 36.35666666666667],
							"events": {
								"0": {
									"type": "up"
								},
								"3": {
									"type": "down"
								}
							}
						}
					]
				},
				{
					"cluster": "2ba",
					"color": "#6FCF50",
					"values": [
						{
							"image": "http://www.brusselsivf.be/media/fotoboek/14/images/embryo-8-cellig-dag3.jpg",
							"phase_of_development": "Exxblast",
							"cluster": "1ba",
							"activity_data": [0, 13.952141627669334, 14.250443503260612, 19.030465185642242],
							"expansion_data": [36.663333333333334, 36.48, 36.5, 36.556666666666665, 36.35666666666667],
							"events": {
								"0": {
									"type": "up"
								},
								"3": {
									"type": "down"
								}
							}
						},
						{
							"image": "http://www.brusselsivf.be/media/fotoboek/14/images/embryo-8-cellig-dag3.jpg",
							"phase_of_development": "Exxblast",
							"cluster": "2ba",
							"activity_data": [0, 13.952141627669334, 14.250443503260612, 19.030465185642242],
							"expansion_data": [36.663333333333334, 36.48, 36.5, 36.556666666666665, 36.35666666666667],
							"events": {
								"0": {
									"type": "up"
								},
								"3": {
									"type": "down"
								}
							}
						},
						{
							"image": "http://www.brusselsivf.be/media/fotoboek/14/images/embryo-8-cellig-dag3.jpg",
							"phase_of_development": "Exxblast",
							"cluster": "2ba",
							"activity_data": [0, 13.952141627669334, 14.250443503260612, 19.030465185642242],
							"expansion_data": [36.663333333333334, 36.48, 36.5, 36.556666666666665, 36.35666666666667],
							"events": {
								"0": {
									"type": "up"
								},
								"3": {
									"type": "down"
								}
							}
						},
						{
							"image": "http://www.brusselsivf.be/media/fotoboek/14/images/embryo-8-cellig-dag3.jpg",
							"phase_of_development": "Exxblast",
							"cluster": "2ba",
							"activity_data": [0, 13.952141627669334, 14.250443503260612, 19.030465185642242],
							"expansion_data": [36.663333333333334, 36.48, 36.5, 36.556666666666665, 36.35666666666667],
							"events": {
								"0": {
									"type": "up"
								},
								"3": {
									"type": "down"
								}
							}
						},
						{
							"image": "http://www.brusselsivf.be/media/fotoboek/14/images/embryo-8-cellig-dag3.jpg",
							"phase_of_development": "Exxblast",
							"cluster": "2ba",
							"activity_data": [0, 13.952141627669334, 14.250443503260612, 19.030465185642242],
							"expansion_data": [36.663333333333334, 36.48, 36.5, 36.556666666666665, 36.35666666666667],
							"events": {
								"0": {
									"type": "up"
								},
								"3": {
									"type": "down"
								}
							}
						},
						{
							"image": "http://www.brusselsivf.be/media/fotoboek/14/images/embryo-8-cellig-dag3.jpg",
							"phase_of_development": "Exxblast",
							"cluster": "2ba",
							"activity_data": [0, 13.952141627669334, 14.250443503260612, 19.030465185642242],
							"expansion_data": [36.663333333333334, 36.48, 36.5, 36.556666666666665, 36.35666666666667],
							"events": {
								"0": {
									"type": "up"
								},
								"3": {
									"type": "down"
								}
							}
						}
					]
				}		
			]
		}

}