<?xml version="1.0" encoding="UTF-8"?>
<svg width="68px" height="65px" viewBox="0 0 68 65" version="1.1" xmlns="http://www.w3.org/2000/svg" xmlns:xlink="http://www.w3.org/1999/xlink">
    <!-- Generator: Sketch 47.1 (45422) - http://www.bohemiancoding.com/sketch -->
    <title>educationActive</title>
    <desc>Created with Sketch.</desc>
    <defs></defs>
    <g id="Page-1" stroke="none" stroke-width="1" fill="none" fill-rule="evenodd">
        <g id="Assets" transform="translate(-39.000000, -432.000000)" fill-rule="nonzero" fill="#F78629">
            <g id="educationActive" transform="translate(39.000000, 432.000000)">
                <path d="M10.1399049,36.5294516 L28.6701466,36.5294516 C29.6683879,36.5294516 30.4776224,35.726171 30.4776224,34.7352742 C30.4776224,33.7443774 29.6683879,32.9410968 28.6701466,32.9410968 L10.1399049,32.9410968 C7.70605457,33.1215468 5.37513536,31.9348652 4.10267649,29.8675164 C2.83021762,27.8001676 2.83021762,25.1998324 4.10267649,23.1324836 C5.37513536,21.0651348 7.70605457,19.8784532 10.1399049,20.0589032 L12.1931974,20.0589032 L12.1931974,27.3935003 C12.1929798,28.0880113 12.596575,28.7202673 13.2293234,29.0166535 C13.8620718,29.3130396 14.6103088,29.2203143 15.1502277,28.7786053 L21.2667258,23.8123223 L27.3759939,28.7786053 C27.9160684,29.2158098 28.6612477,29.3058612 29.2912214,29.0100514 C29.9211952,28.7142417 30.3237282,28.0852718 30.3257944,27.3935003 L30.3257944,20.0589032 L39.4065527,20.0589032 C40.404794,20.0589032 41.2140285,19.2556226 41.2140285,18.2647258 C41.2140285,17.273829 40.404794,16.4705484 39.4065527,16.4705484 L30.3257944,16.4705484 L30.3257944,10.0115098 C30.3257944,9.02061301 29.5165599,8.21733243 28.5183186,8.21733243 L14.0006731,8.21733243 C13.0024318,8.21733243 12.1931974,9.02061301 12.1931974,10.0115098 L12.1931974,16.4705484 L10.1399049,16.4705484 C7.70605457,16.6509984 5.37513536,15.4643168 4.10267649,13.396968 C2.83021762,11.3296192 2.83021762,8.72928401 4.10267649,6.66193521 C5.37513536,4.5945864 7.70605457,3.40790483 10.1399049,3.58835477 L60.1925242,3.58835477 C61.1907655,3.58835477 62,2.7850742 62,1.79417739 C62,0.803280577 61.1907655,0 60.1925242,0 L10.1399049,0 C5.73392496,0.0174133987 1.84542009,2.86203043 0.524164924,7.03434831 C-0.797090239,11.2066662 0.752456742,15.7481136 4.35598238,18.2647258 C1.62854023,20.132177 3.21072197e-16,23.2110405 0,26.5 C-3.21072197e-16,29.7889595 1.62854023,32.867823 4.35598238,34.7352742 C0.752456742,37.2518864 -0.797090239,41.7933338 0.524164924,45.9656517 C1.84542009,50.1379696 5.73392496,52.9825866 10.1399049,53 L19.1989735,53 C20.1972148,53 21.0064493,52.1967194 21.0064493,51.2058226 C21.0064493,50.2149258 20.1972148,49.4116452 19.1989735,49.4116452 L10.1399049,49.4116452 C7.70605457,49.5920952 5.37513536,48.4054136 4.10267649,46.3380648 C2.83021762,44.270716 2.83021762,41.6703808 4.10267649,39.603032 C5.37513536,37.5356832 7.70605457,36.3490016 10.1399049,36.5294516 Z M15.8081489,11.8272173 L26.7108428,11.8272173 L26.7108428,23.6113744 L22.372901,20.1163169 C21.7065903,19.5740759 20.7473323,19.5740759 20.0810217,20.1163169 L15.7430798,23.6185511 L15.8081489,11.8272173 Z" id="Shape"></path>
                <path d="M50.7682263,49 C49.7916619,49 49,49.8954305 49,51 C49,52.1045695 49.7916619,53 50.7682263,53 L60.2317737,53 C61.2083381,53 62,52.1045695 62,51 C62,49.8954305 61.2083381,49 60.2317737,49 L50.7682263,49 Z" id="Shape"></path>
                <path d="M67.9225334,27.5535829 C67.6799072,26.0207552 66.8411402,24.6494966 65.5928476,23.7448952 L64.4600646,22.9241194 L66.1984234,20.4833913 C67.283702,18.9636668 67.7268015,17.070349 67.4301554,15.2203292 C67.1335092,13.3703095 66.1214421,11.7152868 64.6168019,10.6196821 L62.8499454,9.33092014 C59.7154482,7.05264507 55.3471947,7.77120374 53.0894882,10.9364728 L26.0665583,48.8433553 C25.8939584,49.085827 25.7837814,49.3678948 25.7459593,49.6641311 L24.014725,62.9693388 C23.930862,63.6250979 24.2095295,64.2745307 24.7405377,64.6608409 C25.2715459,65.0471512 25.9693946,65.1081373 26.5581434,64.8196842 L38.5057979,58.959057 C38.7723476,58.8286727 39.0025218,58.6331821 39.1754935,58.3902738 L62.3726092,25.8400334 L63.5053922,26.6608092 C63.9854193,27.0101787 64.3084095,27.5379852 64.4032771,28.1280655 C64.4981448,28.7181458 64.3571148,29.3221397 64.0112261,29.8071165 L55.6970264,41.4635728 C55.3254111,41.9857368 55.2576794,42.6685879 55.5193454,43.2549028 C55.7810114,43.8412176 56.3323216,44.241921 56.9656029,44.3060718 C57.5988843,44.3702226 58.2179261,44.0880749 58.5895415,43.5659108 L66.9037411,31.9166543 C67.8072025,30.6585779 68.1741458,29.0871096 67.9225334,27.5535829 Z M55.9820033,13.0388108 C57.0909946,11.488296 59.2325117,11.1372623 60.7696144,12.254034 L62.5364709,13.542796 C63.2749347,14.0798543 63.7717551,14.8916347 63.9174246,15.7992075 C64.063094,16.7067802 63.8456544,17.6356409 63.3130328,18.3810533 L60.5487573,22.2689387 L60.5487573,22.2689387 L37.9857151,53.8904065 C36.4037202,51.127232 33.7232418,49.184109 30.6261879,48.5553637 L55.9820033,13.0388108 Z M29.037442,51.9752629 C31.8064546,52.205726 34.2221131,53.9652835 35.3140571,56.5471281 L27.9759032,60.147022 L29.037442,51.9752629 Z" id="Shape"></path>
            </g>
        </g>
    </g>
</svg>