<?xml version="1.0" encoding="UTF-8"?>
<svg width="284px" height="153.4px" viewBox="0 0 60 33" version="1.1" xmlns="http://www.w3.org/2000/svg" xmlns:xlink="http://www.w3.org/1999/xlink">
	<!-- Generator: Sketch 47.1 (45422) - http://www.bohemiancoding.com/sketch -->
	<title>icon-esclogo</title>
	<desc>Created with Sketch.</desc>
	<defs></defs>
	<g id="Assets" stroke="none" stroke-width="1" fill="none" fill-rule="evenodd">
		<g transform="translate(-40.000000, -38.000000)" id="icon-esclogo" fill="#ffffff">
			<path d="M90.6305924,56.1549923 C88.0006479,57.4721387 85.5474143,59.9090456 85.3475483,62.2367076 C85.1318392,64.5494726 88.1115492,65.6754403 91.6811077,63.846829 C95.2445727,62.0169763 97.1957039,58.4429289 96.4852045,56.662733 C95.7722678,54.8539844 93.2775985,54.8738471 90.6305924,56.1549923 L90.6305924,56.1549923 Z M75.7222929,60.0244976 C71.522669,60.6054821 66.611327,62.5445797 64.8356879,65.4035694 C63.047862,68.2253165 66.131161,71.379764 71.7200976,70.962647 C77.3163464,70.5418057 81.9961363,66.6288507 82.4019618,63.669306 C82.8175369,60.6725188 79.925573,59.5055842 75.7222929,60.0244976 Z M58.9213597,57.2164062 C54.804607,56.2865828 49.4837834,55.9427095 46.9598655,57.428689 C44.4469158,58.8712187 46.1360275,62.7804495 51.1546147,64.7120986 C56.1963571,66.6362992 61.8328228,65.0075565 63.4390631,62.5880294 C65.063584,60.1362254 63.0173946,58.2083006 58.9213597,57.2164062 L58.9213597,57.2164062 Z M83.5767841,38.062541 C82.4348666,38.3306876 81.3197604,39.4206542 81.0955205,40.5962787 C80.8603123,41.7706617 82.0046671,42.5440662 83.5853149,42.1281906 C85.1635253,41.7073493 86.1506685,40.4262042 85.9410529,39.4057571 C85.7338747,38.3766202 84.7235763,37.8018428 83.5755654,38.062541 L83.5767841,38.062541 Z M77.5929902,39.1140235 C76.2755806,39.3399619 74.5547829,40.3616503 73.6761036,41.4913423 C72.7901121,42.6135857 73.6285744,43.5818931 75.5492382,43.4118186 C77.4638085,43.2342956 79.1675445,41.9345291 79.4478444,40.7613875 C79.7342378,39.5820387 78.9152746,38.8992579 77.5929902,39.1127821 L77.5929902,39.1140235 Z M94.6425373,48.6381958 C93.5335245,50.3761834 93.3190342,52.486597 94.4304843,53.5641493 C95.5346222,54.6441845 97.8501433,53.6634629 99.1626781,51.0763441 C100.466682,48.487984 100.155915,46.0771468 98.862879,45.8574155 C97.5527816,45.6240286 95.7686117,46.9101395 94.6425373,48.6381958 L94.6425373,48.6381958 Z M89.4655197,42.1666746 C87.8397802,42.8320756 86.8867605,44.2895024 87.4729529,45.610373 C88.0493958,46.9349679 90.4575376,47.2478056 92.6536266,46.0014202 C94.8484968,44.7488277 95.5126857,43.01953 94.363456,42.2908166 C93.2093516,41.5434819 91.0997901,41.5124464 89.4655197,42.1666746 Z M59.0688218,43.7979002 C56.320664,43.120085 51.9565162,42.4211657 49.3899439,42.5093065 C46.8367773,42.5676532 47.565557,44.4906124 51.0717434,46.198806 C54.5949915,47.8908611 58.988388,47.7865818 60.7835261,46.7077881 C62.5823204,45.6240286 61.815761,44.5104751 59.0688218,43.7979002 Z M76.9312387,53.3518665 C75.0264179,52.4766656 71.666475,52.803159 67.9896713,53.8745042 C64.3567407,54.9321939 61.8060115,56.8042548 63.8168587,58.6328661 C65.791145,60.4900301 71.6469759,60.5061685 75.1495062,58.4503774 C78.6751916,56.4343118 78.7799994,54.2034805 76.9312387,53.3518665 Z M71.9431189,47.6525085 C70.6110849,46.3825361 67.3401068,46.3688805 63.1855745,46.8803454 C59.0663845,47.3980174 55.6467255,48.5463307 56.9872903,50.7510922 C58.2791073,52.9844063 63.959446,54.3375538 68.0603557,52.8279874 C72.1795457,51.3767677 73.2239676,48.8690998 71.9431189,47.6525085 L71.9431189,47.6525085 Z M89.0779746,49.3780819 C86.3176298,49.6027789 83.305015,50.8913726 80.9919314,52.918611 C78.717846,54.9073655 78.1243413,57.2226133 81.3709456,57.5280025 C84.6126751,57.8644273 89.9895587,55.3517937 91.7347303,52.8143318 C93.5335245,50.2843183 91.779822,49.1732477 89.0791933,49.3780819 L89.0779746,49.3780819 Z M69.9566455,41.5770003 C68.1054474,41.5931387 65.2012965,42.1443291 63.4134705,42.9375963 C61.6244259,43.7134836 62.3227383,44.9710418 64.9892435,45.3906417 C67.6557488,45.7990688 70.574524,44.7997259 71.5482616,43.5955488 C72.5280926,42.3864059 71.8151558,41.5807245 69.9566455,41.5770003 L69.9566455,41.5770003 Z M52.7437933,49.7827848 C49.1510796,48.3923947 44.0849633,46.9337265 41.446488,47.1981489 C38.8287305,47.4228458 39.8158737,50.7212981 43.9874677,53.4486973 C48.1883103,56.1649237 53.5383826,56.1078184 55.5736038,54.5634922 C57.6161371,53.0005447 56.3182266,51.2265559 52.7437933,49.7827848 Z M80.9858379,43.1560862 C78.4728882,43.7358292 75.22994,45.6016831 73.6895092,47.9355522 C72.1161736,50.2346616 74.5669698,52.602049 78.989615,51.8423001 C83.3988545,51.0341359 86.228665,47.6922339 85.8983986,45.6140973 C85.5851939,43.4863038 83.5243802,42.6384141 80.9858379,43.1560862 L80.9858379,43.1560862 Z"></path>
		</g>
	</g>
</svg>
