<?xml version="1.0" encoding="UTF-8"?>
<svg width="14px" height="4px" viewBox="0 0 14 4" version="1.1" xmlns="http://www.w3.org/2000/svg" xmlns:xlink="http://www.w3.org/1999/xlink">
    <!-- Generator: Sketch 47.1 (45422) - http://www.bohemiancoding.com/sketch -->
    <title>icon_dash copy 2</title>
    <desc>Created with Sketch.</desc>
    <defs></defs>
    <g id="Page-1" stroke="none" stroke-width="1" fill="none" fill-rule="evenodd">
        <g id="Assets" transform="translate(-359.000000, -1401.000000)">
            <g id="lineCenter" transform="translate(359.000000, 1333.000000)">
                <g id="icon_dash-copy-2" transform="translate(0.000000, 68.000000)">
                    <polygon id="Stroke-1" points="0 0 14 0 14 4 0 4"></polygon>
                    <rect id="reflector" fill="#E76120" x="0" y="0" width="14" height="4" rx="2"></rect>
                </g>
            </g>
        </g>
    </g>
</svg>